1st step : - sign in to the root account of AWS management console,
             taping on account name you can see option named Account,
             go down for IAM User and Role Access to Billing Information,
             tap on edit check the box in front of Activate IAM Access,
             update..done
step 2nd : -



{
    "Version": "2012-10-17",
    "Statement": [
        {
            "Sid": "VisualEditor0",
            "Effect": "Allow",
            "Action": "aws-portal:*",
            "Resource": "*"
        }
    ]
}