{
    "Version": "2012-10-17",
    "Statement": [
        {
            "Sid": "VisualEditor0",
            "Effect": "Allow",
            "Action": [
                "s3:ListAccessPointsForObjectLambda",
                "s3:DeleteAccessPoint",
                "s3:DeleteAccessPointForObjectLambda",
                "s3:DeleteJobTagging",
                "s3:PutLifecycleConfiguration",
                "s3:PutObjectTagging",
                "s3:DeleteObject",
                "s3:CreateMultiRegionAccessPoint",
                "s3:PutAccessPointPolicyForObjectLambda",
                "s3:PutAccountPublicAccessBlock",
                "s3:GetBucketWebsite",
                "s3:PutMultiRegionAccessPointPolicy",
                "s3:DeleteStorageLensConfigurationTagging",
                "s3:GetMultiRegionAccessPoint",
                "s3:PutReplicationConfiguration",
                "s3:GetObjectAttributes",
                "s3:DeleteObjectVersionTagging",
                "s3:InitiateReplication",
                "s3:GetObjectLegalHold",
                "s3:GetBucketNotification",
                "s3:DeleteBucketPolicy",
                "s3:GetReplicationConfiguration",
                "s3:DescribeMultiRegionAccessPointOperation",
                "s3:PutObject",
                "s3:PutBucketNotification",
                "s3:PutObjectVersionAcl",
                "s3:PutAccessPointPublicAccessBlock",
                "s3:CreateJob",
                "s3:PutBucketObjectLockConfiguration",
                "s3:PutAccessPointPolicy",
                "s3:GetStorageLensDashboard",
                "s3:GetLifecycleConfiguration",
                "s3:GetBucketTagging",
                "s3:GetInventoryConfiguration",
                "s3:GetAccessPointPolicyForObjectLambda",
                "s3:ReplicateTags",
                "s3:ListBucket",
                "s3:AbortMultipartUpload",
                "s3:PutBucketTagging",
                "s3:UpdateJobPriority",
                "s3:PutBucketVersioning",
                "s3:GetMultiRegionAccessPointPolicyStatus",
                "s3:ListBucketMultipartUploads",
                "s3:PutIntelligentTieringConfiguration",
                "s3:PutMetricsConfiguration",
                "s3:PutStorageLensConfigurationTagging",
                "s3:PutObjectVersionTagging",
                "s3:GetBucketVersioning",
                "s3:GetAccessPointConfigurationForObjectLambda",
                "s3:PutInventoryConfiguration",
                "s3:ObjectOwnerOverrideToBucketOwner",
                "s3:GetStorageLensConfiguration",
                "s3:DeleteStorageLensConfiguration",
                "s3:GetAccountPublicAccessBlock",
                "s3:PutBucketWebsite",
                "s3:ListAllMyBuckets",
                "s3:PutBucketRequestPayment",
                "s3:PutObjectRetention",
                "s3:CreateAccessPointForObjectLambda",
                "s3:GetBucketCORS",
                "s3:DeleteAccessPointPolicy",
                "s3:GetObjectVersion",
                "s3:PutAnalyticsConfiguration",
                "s3:PutAccessPointConfigurationForObjectLambda",
                "s3:GetObjectVersionTagging",
                "s3:PutStorageLensConfiguration",
                "s3:CreateBucket",
                "s3:GetStorageLensConfigurationTagging",
                "s3:ReplicateObject",
                "s3:GetObjectAcl",
                "s3:GetBucketObjectLockConfiguration",
                "s3:GetIntelligentTieringConfiguration",
                "s3:DeleteAccessPointPolicyForObjectLambda",
                "s3:GetObjectVersionAcl",
                "s3:PutBucketAcl",
                "s3:DeleteObjectTagging",
                "s3:GetBucketPolicyStatus",
                "s3:GetObjectRetention",
                "s3:GetJobTagging",
                "s3:ListJobs",
                "s3:PutObjectLegalHold",
                "s3:PutBucketCORS",
                "s3:ListMultipartUploadParts",
                "s3:GetObject",
                "s3:DescribeJob",
                "s3:PutBucketLogging",
                "s3:GetAnalyticsConfiguration",
                "s3:GetObjectVersionForReplication",
                "s3:GetAccessPointForObjectLambda",
                "s3:CreateAccessPoint",
                "s3:GetAccessPoint",
                "s3:PutAccelerateConfiguration",
                "s3:DeleteObjectVersion",
                "s3:GetBucketLogging",
                "s3:ListBucketVersions",
                "s3:RestoreObject",
                "s3:GetAccelerateConfiguration",
                "s3:GetObjectVersionAttributes",
                "s3:GetBucketPolicy",
                "s3:PutEncryptionConfiguration",
                "s3:GetEncryptionConfiguration",
                "s3:GetObjectVersionTorrent",
                "s3:GetBucketRequestPayment",
                "s3:GetAccessPointPolicyStatus",
                "s3:GetObjectTagging",
                "s3:GetBucketOwnershipControls",
                "s3:GetMetricsConfiguration",
                "s3:PutObjectAcl",
                "s3:GetBucketPublicAccessBlock",
                "s3:PutBucketPublicAccessBlock",
                "s3:GetMultiRegionAccessPointPolicy",
                "s3:GetAccessPointPolicyStatusForObjectLambda",
                "s3:ListAccessPoints",
                "s3:PutBucketOwnershipControls",
                "s3:DeleteMultiRegionAccessPoint",
                "s3:PutJobTagging",
                "s3:ListMultiRegionAccessPoints",
                "s3:UpdateJobStatus",
                "s3:GetBucketAcl",
                "s3:BypassGovernanceRetention",
                "s3:ListStorageLensConfigurations",
                "s3:GetObjectTorrent",
                "s3:PutBucketPolicy",
                "s3:GetBucketLocation",
                "s3:GetAccessPointPolicy",
                "s3:ReplicateDelete"
            ],
            "Resource": "*"
        }
    ]
}